Sample trials:

Build me a dome:
	[[16, 0], [11, 12], [18, 0], [1, 11], [24, 1], [2, 6]]
	[[16, 0], [11, 12], [18, 0], [1, 11], [24, 1], [2, 6], [10, 7], [26, 1]]
	
Random sample:
	[[10, 23], [13, 0], [1, 10], [18, 0], [3, 5], [18, 1]]
	
Build me a 4 square:
    [[12, 20], [2, 16], [1, 12], [18, 2], [3, 7], [20, 3]]
    
    
4 square start:
    [[6, 8], [16,18]]