{

	"bot": {
	
		"current_rating": 800,
		
		"history": [{
			"match_date": "08/12/2020",
			"match_length": 100,
			"match_opponent": "bot100",
			"match_result" : "20|80",
			"start_rating": 800,
			"opponent_start_rating": 800,
			"rating_change": -6
		}]
	},
	
	"bot1000": {
	
		"current_rating": 800,
		
		"history": [{
			"match_date": "08/12/2020",
			"match_number": 100,
			"match_opponent": "bot",
			"match_result" : "80|20",
			"start_rating": 800,
			"opponent_start_rating": 800,
			"rating_change": 6
		}]
	}
	
	





}