
{
	"load_path": "./d04_data/test_branch/zero",
	"load_file_actor": "/agent_actor_bot.pt",
	"load_file_critic": "/agent_critic_bot.pt",
	
	"save_path": "./d04_data/test_branch/one_thousand",
	"save_file_actor": "/agent_actor_bot",
	"save_file_critic": "/agent_critic_bot",
	
	"train_start_iteration": 0,
	"train_iteration": 10000,
	
	"train_save_interval": 100,
	
	"series": "zero_series",
	
	"gamma": 0.99,
	"learning_rate": 0.01
}